{
  "board": {
    "design_settings": {
      "defaults": {
        "board_outline_line_width": 0.09999999999999999,
        "copper_line_width": 0.19999999999999998,
        "copper_text_italic": false,
        "copper_text_size_h": 1.5,
        "copper_text_size_v": 1.5,
        "copper_text_thickness": 0.3,
        "copper_text_upright": false,
        "courtyard_line_width": 0.049999999999999996,
        "dimension_precision": 4,
        "dimension_units": 2,
        "dimensions": {
          "arrow_length": 1270000,
          "extension_offset": 500000,
          "keep_text_aligned": true,
          "suppress_zeroes": false,
          "text_position": 0,
          "units_format": 1
        },
        "fab_line_width": 0.09999999999999999,
        "fab_text_italic": false,
        "fab_text_size_h": 1.0,
        "fab_text_size_v": 1.0,
        "fab_text_thickness": 0.15,
        "fab_text_upright": false,
        "other_line_width": 0.09999999999999999,
        "other_text_italic": false,
        "other_text_size_h": 1.0,
        "other_text_size_v": 1.0,
        "other_text_thickness": 0.15,
        "other_text_upright": false,
        "pads": {
          "drill": 0.0,
          "height": 0.24,
          "width": 0.24
        },
        "silk_line_width": 0.153,
        "silk_text_italic": false,
        "silk_text_size_h": 1.0,
        "silk_text_size_v": 1.0,
        "silk_text_thickness": 0.15,
        "silk_text_upright": false,
        "zones": {
          "45_degree_only": false,
          "min_clearance": 0.25
        }
      },
      "diff_pair_dimensions": [
        {
          "gap": 0.0,
          "via_gap": 0.0,
          "width": 0.0
        }
      ],
      "drc_exclusions": [
        "clearance|101988000|75163600|0cc7b356-900f-4c1a-934d-900980237bea|b95d9b1a-2569-4b91-8313-ff25343f3a40",
        "clearance|101988000|75163600|f7948f7d-8780-4985-8697-ee86a5bb2492|b95d9b1a-2569-4b91-8313-ff25343f3a40",
        "clearance|102488000|69663600|d1ef3b6f-18e2-420d-800e-b1f707cec9d0|a8eb5954-79cc-4c19-a8f2-d8dae55fcc80",
        "clearance|102488000|69663600|ffa406fa-9eda-4681-8206-46279e543f43|a8eb5954-79cc-4c19-a8f2-d8dae55fcc80",
        "clearance|102488000|76163600|62573485-6615-4689-9956-6f4af34228ca|da618807-a343-4a9d-9e90-8d7ddbe9d0e1",
        "clearance|102488000|76163600|a821eb2a-f7f6-4b4d-9106-98fd6374254b|da618807-a343-4a9d-9e90-8d7ddbe9d0e1",
        "clearance|102488000|76299500|cc1d802f-0f95-49ad-98c0-e9c17a6a41fd|da618807-a343-4a9d-9e90-8d7ddbe9d0e1",
        "clearance|102988000|70163600|01bc05c2-1086-420f-a1fd-3f67f0b2a35a|337c2fd1-69bb-4da6-94c9-3efe826df59a",
        "clearance|102988000|70163600|8271d598-6937-40c3-853b-1d9834819795|337c2fd1-69bb-4da6-94c9-3efe826df59a",
        "clearance|103479600|74655200|6cb11a66-f423-4d11-ab19-421e8eeb13a9|866b9eef-298b-416c-877b-223973cb1cba",
        "clearance|103488000|74663600|8751086e-892b-45e2-baa4-a38e05bc3806|866b9eef-298b-416c-877b-223973cb1cba",
        "clearance|103488000|74663600|bbffb2c1-e33b-43e1-8dc6-09da6fe7e693|866b9eef-298b-416c-877b-223973cb1cba",
        "clearance|104488000|70163600|25f3fcc7-0f0f-4dde-a266-bb94c02767ea|0b20ed31-0b7c-48f0-a99d-55f075348045",
        "clearance|104488000|70163600|8d31db64-e357-46a5-88d6-63b546d3de3c|0b20ed31-0b7c-48f0-a99d-55f075348045"
      ],
      "meta": {
        "filename": "board_design_settings.json",
        "version": 2
      },
      "rule_severities": {
        "annular_width": "error",
        "clearance": "error",
        "copper_edge_clearance": "error",
        "courtyards_overlap": "error",
        "diff_pair_gap_out_of_range": "error",
        "diff_pair_uncoupled_length_too_long": "error",
        "drill_out_of_range": "error",
        "duplicate_footprints": "warning",
        "extra_footprint": "warning",
        "footprint_type_mismatch": "error",
        "hole_clearance": "error",
        "hole_near_hole": "error",
        "invalid_outline": "error",
        "item_on_disabled_layer": "error",
        "items_not_allowed": "error",
        "length_out_of_range": "error",
        "malformed_courtyard": "error",
        "microvia_drill_out_of_range": "error",
        "missing_courtyard": "ignore",
        "missing_footprint": "warning",
        "net_conflict": "warning",
        "npth_inside_courtyard": "ignore",
        "padstack": "error",
        "pth_inside_courtyard": "ignore",
        "shorting_items": "error",
        "silk_over_copper": "warning",
        "silk_overlap": "warning",
        "skew_out_of_range": "error",
        "through_hole_pad_without_hole": "error",
        "too_many_vias": "error",
        "track_dangling": "warning",
        "track_width": "error",
        "tracks_crossing": "error",
        "unconnected_items": "error",
        "unresolved_variable": "error",
        "via_dangling": "warning",
        "zone_has_empty_net": "error",
        "zones_intersect": "error"
      },
      "rule_severitieslegacy_courtyards_overlap": true,
      "rule_severitieslegacy_no_courtyard_defined": false,
      "rules": {
        "allow_blind_buried_vias": false,
        "allow_microvias": false,
        "max_error": 0.005,
        "min_clearance": 0.09999999999999999,
        "min_copper_edge_clearance": 0.19999999999999998,
        "min_hole_clearance": 0.19999999999999998,
        "min_hole_to_hole": 0.254,
        "min_microvia_diameter": 0.19999999999999998,
        "min_microvia_drill": 0.09999999999999999,
        "min_silk_clearance": 0.0,
        "min_through_hole_diameter": 0.19999999999999998,
        "min_track_width": 0.09999999999999999,
        "min_via_annular_width": 0.13,
        "min_via_diameter": 0.39999999999999997,
        "use_height_for_length_calcs": true
      },
      "track_widths": [
        0.0,
        0.18,
        0.25,
        0.35,
        0.45,
        0.6,
        1.0
      ],
      "via_dimensions": [
        {
          "diameter": 0.0,
          "drill": 0.0
        },
        {
          "diameter": 0.46,
          "drill": 0.2
        },
        {
          "diameter": 0.66,
          "drill": 0.4
        }
      ],
      "zones_allow_external_fillets": true,
      "zones_use_no_outline": true
    },
    "layer_presets": [
      {
        "activeLayer": -2,
        "layers": [
          31,
          32,
          34,
          44,
          46
        ],
        "name": "Back Layout",
        "renderLayers": [
          125,
          126,
          127,
          128,
          129,
          130,
          133,
          134,
          135,
          136,
          137,
          138,
          139,
          140,
          141,
          142,
          143,
          144,
          145,
          146,
          147,
          148,
          149,
          150,
          151,
          152,
          153,
          154,
          155,
          157,
          158,
          159,
          160,
          161
        ]
      },
      {
        "activeLayer": -2,
        "layers": [
          0,
          5,
          6,
          7,
          8,
          9,
          10,
          11,
          12,
          13,
          14,
          15,
          16,
          17,
          18,
          19,
          20,
          21,
          22,
          23,
          24,
          25,
          26,
          27,
          28,
          29,
          30,
          31,
          44,
          46,
          47
        ],
        "name": "Component layers",
        "renderLayers": [
          125,
          126,
          127,
          128,
          129,
          130,
          133,
          134,
          135,
          136,
          137,
          138,
          139,
          140,
          141,
          142,
          143,
          144,
          145,
          146,
          147,
          148,
          149,
          150,
          151,
          152,
          153,
          154,
          155,
          157,
          158,
          159,
          160,
          161
        ]
      },
      {
        "activeLayer": -2,
        "layers": [
          0,
          33,
          35,
          39,
          44,
          47
        ],
        "name": "Front Layout",
        "renderLayers": [
          125,
          126,
          127,
          128,
          129,
          130,
          133,
          134,
          135,
          136,
          137,
          138,
          139,
          140,
          141,
          142,
          143,
          144,
          145,
          146,
          147,
          148,
          149,
          150,
          151,
          152,
          153,
          154,
          155,
          157,
          158,
          159,
          160,
          161
        ]
      }
    ]
  },
  "boards": [],
  "cvpcb": {
    "equivalence_files": []
  },
  "erc": {
    "erc_exclusions": [],
    "meta": {
      "version": 0
    },
    "pin_map": [
      [
        0,
        0,
        0,
        0,
        0,
        0,
        1,
        0,
        0,
        0,
        0,
        2
      ],
      [
        0,
        2,
        0,
        1,
        0,
        0,
        1,
        0,
        2,
        2,
        2,
        2
      ],
      [
        0,
        0,
        0,
        0,
        0,
        0,
        1,
        0,
        1,
        0,
        1,
        2
      ],
      [
        0,
        1,
        0,
        0,
        0,
        0,
        1,
        1,
        2,
        1,
        1,
        2
      ],
      [
        0,
        0,
        0,
        0,
        0,
        0,
        1,
        0,
        0,
        0,
        0,
        2
      ],
      [
        0,
        0,
        0,
        0,
        0,
        0,
        0,
        0,
        0,
        0,
        0,
        2
      ],
      [
        1,
        1,
        1,
        1,
        1,
        0,
        1,
        1,
        1,
        1,
        1,
        2
      ],
      [
        0,
        0,
        0,
        1,
        0,
        0,
        1,
        0,
        0,
        0,
        0,
        2
      ],
      [
        0,
        2,
        1,
        2,
        0,
        0,
        1,
        0,
        2,
        2,
        2,
        2
      ],
      [
        0,
        2,
        0,
        1,
        0,
        0,
        1,
        0,
        2,
        0,
        0,
        2
      ],
      [
        0,
        2,
        1,
        1,
        0,
        0,
        1,
        0,
        2,
        0,
        0,
        2
      ],
      [
        2,
        2,
        2,
        2,
        2,
        2,
        2,
        2,
        2,
        2,
        2,
        2
      ]
    ],
    "rule_severities": {
      "bus_definition_conflict": "error",
      "bus_entry_needed": "error",
      "bus_label_syntax": "error",
      "bus_to_bus_conflict": "error",
      "bus_to_net_conflict": "error",
      "different_unit_footprint": "error",
      "different_unit_net": "error",
      "duplicate_reference": "error",
      "duplicate_sheet_names": "error",
      "extra_units": "error",
      "global_label_dangling": "warning",
      "hier_label_mismatch": "error",
      "label_dangling": "error",
      "lib_symbol_issues": "warning",
      "multiple_net_names": "warning",
      "net_not_bus_member": "warning",
      "no_connect_connected": "warning",
      "no_connect_dangling": "warning",
      "pin_not_connected": "error",
      "pin_not_driven": "error",
      "pin_to_pin": "warning",
      "power_pin_not_driven": "error",
      "similar_labels": "warning",
      "unannotated": "error",
      "unit_value_mismatch": "error",
      "unresolved_variable": "error",
      "wire_dangling": "error"
    }
  },
  "libraries": {
    "pinned_footprint_libs": [],
    "pinned_symbol_libs": []
  },
  "meta": {
    "filename": "satnogs-comms.kicad_pro",
    "version": 1
  },
  "net_settings": {
    "classes": [
      {
        "bus_width": 12.0,
        "clearance": 0.1,
        "diff_pair_gap": 0.1,
        "diff_pair_via_gap": 0.25,
        "diff_pair_width": 0.25,
        "line_style": 0,
        "microvia_diameter": 0.3,
        "microvia_drill": 0.1,
        "name": "Default",
        "pcb_color": "rgba(0, 0, 0, 0.000)",
        "schematic_color": "rgba(0, 0, 0, 0.000)",
        "track_width": 0.25,
        "via_diameter": 0.46,
        "via_drill": 0.2,
        "wire_width": 6.0
      },
      {
        "bus_width": 12.0,
        "clearance": 0.2,
        "diff_pair_gap": 0.2,
        "diff_pair_via_gap": 0.25,
        "diff_pair_width": 0.22,
        "line_style": 0,
        "microvia_diameter": 0.3,
        "microvia_drill": 0.1,
        "name": "LVDS-Inner",
        "nets": [
          "/FPGA/RXCLKN",
          "/FPGA/RXCLKP",
          "/FPGA/RXDN09",
          "/FPGA/RXDN24",
          "/FPGA/RXDP09",
          "/FPGA/RXDP24",
          "/FPGA/TXCLKN",
          "/FPGA/TXCLKP",
          "/FPGA/TXDN",
          "/FPGA/TXDP"
        ],
        "pcb_color": "rgba(0, 0, 0, 0.000)",
        "schematic_color": "rgba(0, 0, 0, 0.000)",
        "track_width": 0.22,
        "via_diameter": 0.46,
        "via_drill": 0.2,
        "wire_width": 6.0
      },
      {
        "bus_width": 12.0,
        "clearance": 0.2,
        "diff_pair_gap": 0.1,
        "diff_pair_via_gap": 0.25,
        "diff_pair_width": 0.35,
        "line_style": 0,
        "microvia_diameter": 0.3,
        "microvia_drill": 0.1,
        "name": "RF-50-Outer",
        "nets": [
          "/RF/RF09CAP_N",
          "/RF/RF09CAP_P",
          "/RF/RF09N",
          "/RF/RF09P",
          "/RF/RF24CAP_N",
          "/RF/RF24CAP_P",
          "/RF/RF24N",
          "/RF/RF24P",
          "/RF/mixer/MIX1_IPN",
          "/RF/mixer/MIX1_IPP",
          "/RF/mixer/MIX1_OPN",
          "/RF/mixer/MIX1_OPP",
          "/RF/mixer/MIX2_IPN",
          "/RF/mixer/MIX2_IPP",
          "/RF/mixer/MIX2_OPN",
          "/RF/mixer/MIX2_OPP",
          "/RF/sband-frontend/RX24_DET_IPN",
          "/RF/sband-frontend/RX24_DET_IPP",
          "/RF/sband-frontend/RX24_VGA_IPN",
          "/RF/sband-frontend/RX24_VGA_IPP",
          "/RF/sband-frontend/RX24_VGA_OPN",
          "/RF/sband-frontend/RX24_VGA_OPP",
          "/RF/uhf-frontend/RX09_DET_IPN",
          "/RF/uhf-frontend/RX09_DET_IPP",
          "/RF/uhf-frontend/RX09_VGA_IPN",
          "/RF/uhf-frontend/RX09_VGA_IPP",
          "/RF/uhf-frontend/RX09_VGA_OPN",
          "/RF/uhf-frontend/RX09_VGA_OPP"
        ],
        "pcb_color": "rgba(0, 0, 0, 0.000)",
        "schematic_color": "rgba(0, 0, 0, 0.000)",
        "track_width": 0.18,
        "via_diameter": 0.66,
        "via_drill": 0.4,
        "wire_width": 6.0
      }
    ],
    "meta": {
      "version": 2
    },
    "net_colors": null
  },
  "pcbnew": {
    "last_paths": {
      "gencad": "",
      "idf": "",
      "netlist": "",
      "specctra_dsn": "",
      "step": "../satnogs-comms.step",
      "vrml": ""
    },
    "page_layout_descr_file": "${LSF_KICAD_LIB}/layouts/A4_Landscape_lsf_kicad.kicad_wks"
  },
  "schematic": {
    "annotate_start_num": 0,
    "drawing": {
      "default_line_thickness": 6.0,
      "default_text_size": 50.0,
      "field_names": [],
      "intersheets_ref_own_page": false,
      "intersheets_ref_prefix": "",
      "intersheets_ref_short": false,
      "intersheets_ref_show": false,
      "intersheets_ref_suffix": "",
      "junction_size_choice": 3,
      "label_size_ratio": 0.25,
      "pin_symbol_size": 25.0,
      "text_offset_ratio": 0.08
    },
    "legacy_lib_dir": "",
    "legacy_lib_list": [],
    "meta": {
      "version": 1
    },
    "net_format_name": "",
    "ngspice": {
      "fix_include_paths": true,
      "fix_passive_vals": false,
      "meta": {
        "version": 0
      },
      "model_mode": 0,
      "workbook_filename": ""
    },
    "page_layout_descr_file": "${LSF_KICAD_LIB}/layouts/A4_Landscape_lsf_kicad.kicad_wks",
    "plot_directory": "",
    "spice_adjust_passive_values": false,
    "spice_external_command": "spice \"%I\"",
    "subpart_first_id": 65,
    "subpart_id_separator": 0
  },
  "sheets": [
    [
      "e315fb88-f764-4ec7-a92b-006692d5e26f",
      ""
    ],
    [
      "00000000-0000-0000-0000-00005e50dec5",
      "CAN"
    ],
    [
      "00000000-0000-0000-0000-00005e50dec7",
      "FPGA"
    ],
    [
      "00000000-0000-0000-0000-00005e50dec6",
      "MCU"
    ],
    [
      "00000000-0000-0000-0000-00005ed1bcda",
      "Main PSU"
    ],
    [
      "00000000-0000-0000-0000-00005e50dec8",
      "RF"
    ],
    [
      "00000000-0000-0000-0000-00005e8bb47c",
      "Sensors"
    ],
    [
      "00000000-0000-0000-0000-00005e578538",
      "mixer"
    ],
    [
      "00000000-0000-0000-0000-00005ebaad2d",
      "sband-frontend"
    ],
    [
      "00000000-0000-0000-0000-00005e57854a",
      "uhf-frontend"
    ]
  ],
  "text_variables": {}
}
